    21261840  /system/lib/libwebviewchromium.so
    19032544  /system/usr/icu/icudt51l.dat
    14141461  /system/framework/framework-res.apk
    12622152  /system/app/LatinIME.apk
    12543365  /system/priv-app/Launcher2.apk
    11698828  /system/priv-app/Settings.apk
     8493004  /system/lib/libLLVM.so
     5778305  /system/app/Gallery2.apk
     5269355  /system/app/VideoEditor.apk
     4633025  /system/app/Email.apk
     4631091  /system/app/GPS_Toolbox.apk
     4529044  /system/fonts/DroidSansFallback.ttf
     3913701  /system/app/es_file_explorer.apk
     3720883  /system/framework/framework.jar
     3328320  /system/fonts/NotoColorEmoji.ttf
     3225514  /system/app/GPS_Test.apk
     3087988  /system/priv-app/Dialer.apk
     3001543  /system/app/Camera2.apk
     2878468  /system/fonts/MTLmr3m.ttf
     2791826  /system/priv-app/TeleService.apk
     2771867  /system/app/LiveWallpapers.apk
     2612173  /system/app/Browser.apk
     2524513  /system/priv-app/Contacts.apk
     2492448  /system/app/DeskClock.apk
     2195660  /system/lib/libart.so
     1965780  /system/bin/busybox
     1930800  /system/lib/libpac.so
     1922792  /system/lib/libskia.so
     1896052  /system/lib/libavcodec-55.so
     1852964  /system/priv-app/Mms.apk
     1841829  /system/app/Calendar.apk
     1748451  /system/priv-app/SystemUI.apk
     1649996  /system/lib/libchromium_net.so
     1445161  /system/framework/services.jar
     1429144  /system/fonts/NanumGothic.ttf
     1302219  /system/priv-app/Keyguard.apk
     1278875  /system/app/PinyinIME.apk
     1275384  /system/lib/libicui18n.so
     1233742  /system/framework/core-libart.jar
     1231668  /system/framework/core.jar
     1222968  /system/framework/ext.jar
     1157761  /system/app/Exchange2.apk
     1069068  /system/lib/hw/bluetooth.default.so
     1021236  /system/lib/libicuuc.so
     1017828  /system/lib/libart-compiler.so
      994416  /system/lib/libstagefright.so
      953260  /system/lib/libcrypto.so
      922380  /system/lib/libVSC.so
      871883  /system/app/Music.apk
      804959  /system/app/Bluetooth.apk
      793484  /system/bin/rtl_wpa_supplicant
      793480  /system/bin/wpa_supplicant
      743348  /system/lib/egl/libGLESv2_VIVANTE.so
      727828  /system/lib/libandroid_runtime.so
      726752  /system/lib/libdvm.so
      711906  /system/framework/webview/paks/webviewchromium.pak
      665408  /system/lib/libGAL.so
      624264  /system/xbin/tcpdump
      584572  /system/framework/framework2.jar
      566640  /system/lib/libmedia.so
      560918  /system/usr/share/zoneinfo/tzdata
      549364  /system/framework/apache-xml.jar
      533930  /system/media/bootanimation.zip
      533924  /system/lib/libcameraservice.so
      487951  /system/framework/telephony-common.jar
      485112  /system/lib/libGLSLC.so
      476620  /system/lib/libjni_latinime.so
      476528  /system/fonts/Padauk-book.ttf
      470080  /system/app/QuickSearchBox.apk
      456407  /system/priv-app/DownloadProvider.apk
      447868  /system/lib/libmediaplayerservice.so
      445068  /system/bin/recovery
      442096  /system/fonts/Padauk-bookbold.ttf
      408620  /system/framework/bouncycastle.jar
      404186  /system/app/DocumentsUI.apk
      397672  /system/bin/gdbserver
      392964  /system/priv-app/ContactsProvider.apk
      383726  /system/etc/apns-conf.xml
      370086  /system/app/PackageInstaller.apk
      370040  /system/lib/libwebrtc_audio_preprocessing.so
      350312  /system/app/Calculator.apk
      346048  /system/lib/libsrec_jni.so
      336696  /system/lib/libEGL.so
      332340  /system/bin/perf
      332208  /system/lib/libsqlite.so
      328944  /system/lib/libft2.so
      321416  /system/lib/libsonivox.so
      321372  /system/lib/lib_ffmpeg_arm11_elinux.so
      319956  /system/lib/libGLES_trace.so
      316370  /system/media/audio/ringtones/Sceptrum.ogg
      310652  /system/lib/libc.so
      309836  /system/bin/rtl_hostapd
      309832  /system/bin/hostapd
      296324  /system/lib/libharfbuzz_ng.so
      290959  /system/framework/webviewchromium.jar
      288107  /system/lib/modules/ath6kl_sdio.ko
      283540  /system/bin/updater
      281892  /system/lib/libc_malloc_debug_qemu.so
      281888  /system/lib/libc_malloc_debug_leak.so
      275716  /system/lib/libstagefright_soft_aacenc.so
      265008  /system/fonts/DroidSerif-BoldItalic.ttf
      264386  /system/app/LiveWallpapersPicker.apk
      259556  /system/xbin/strace
      259352  /system/lib/libbcinfo.so
      255568  /system/lib/libgui.so
      255404  /system/bin/mdnsd
      253968  /system/lib/firmware/vpu/vpu_fw_imx6d.bin
      253968  /system/lib/firmware/vpu/vpu_fw_imx6q.bin
      251944  /system/fonts/DroidSerif-Italic.ttf
      249880  /system/fonts/DroidSerif-Bold.ttf
      249776  /system/lib/libreference-ril-zte.so
      249528  /system/lib/libssl.so
      248904  /system/fonts/DroidSerif-Regular.ttf
      242224  /system/lib/egl/libGLESv1_CM_VIVANTE.so
      239540  /system/bin/ntfs-3g
      239002  /system/lib/modules/cfg80211.ko
      238828  /system/lib/libinputservice.so
      236343  /system/media/audio/ringtones/Perseus.ogg
      235148  /system/app/DownloadProviderUi.apk
      234804  /system/lib/libstagefright_soft_vpxenc.so
      231884  /system/app/MagicSmokeWallpapers.apk
      230820  /system/lib/libaudioflinger.so
      229048  /system/app/PrintSpooler.apk
      227928  /system/fonts/DroidSansEthiopic-Regular.ttf
      227601  /system/priv-app/CalendarProvider.apk
      226563  /system/etc/NOTICE.html.gz
      225891  /system/media/audio/ringtones/ArgoNavis.ogg
      222724  /system/lib/libstagefright_soft_aacdec.so
      222448  /system/lib/libvideoeditor_core.so
      218992  /system/lib/libhwui.so
      218752  /system/lib/libjni_mosaic.so
      218296  /system/lib/libjpeg.so
      216916  /system/lib/libmedia_jni.so
      214376  /system/lib/libcamera_client.so
      210328  /system/lib/libstlport.so
      207600  /system/lib/libjavacore.so
      206809  /system/media/audio/ringtones/CrazyDream.ogg
      206736  /system/lib/libRS.so
      205256  /system/lib/lib_nb_amr_enc_v2_arm11_elinux.so
      203148  /system/lib/libreference-ril.so
      203148  /system/lib/libreference-ril
      203148  /system/lib/libreference-ril-que.so
      199372  /system/lib/libasan_preload.so
      197972  /system/lib/libstagefright_soft_vpxdec.so
      197930  /system/app/VisualizationWallpapers.apk
      196388  /system/lib/libavutil-53.so
      196312  /system/bin/iptables
      191520  /system/bin/ip6tables
      191040  /system/lib/libttspico.so
      188972  /system/lib/libclcore_debug.bc
      185696  /system/lib/libsurfaceflinger.so
      185580  /system/lib/libFFTEm.so
      185005  /system/media/audio/ringtones/UrsaMinor.ogg
      178685  /system/media/audio/ringtones/Rasalas.ogg
      177512  /system/lib/libbinder.so
      176792  /system/media/audio/alarms/Nobelium.ogg
      176788  /system/media/audio/alarms/Neon.ogg
      175478  /system/media/audio/ringtones/Themos.ogg
      175423  /system/media/audio/ringtones/DreamTheme.ogg
      174112  /system/lib/libclcore.bc
      173404  /system/lib/libwilhelm.so
      173244  /system/lib/libexif.so
      172764  /system/bin/applypatch_static
      170304  /system/lib/libstagefright_soft_flacenc.so
      169092  /system/lib/lib_wb_amr_enc_arm11_elinux.so
      166280  /system/lib/lib_omx_common_v2_arm11_elinux.so
      165540  /system/bin/ip
      165156  /system/lib/libstagefright_wfd.so
      164867  /system/media/audio/ringtones/Kuma.ogg
      163792  /system/lib/libclcore_neon.bc
      162768  /system/bin/racoon
      157488  /system/bin/mksh
      157288  /system/lib/lib_mp4_parser_arm11_elinux.3.0.so
      154380  /system/app/CertInstaller.apk
      153196  /system/bin/ntfsfix
      151352  /system/lib/lib_nb_amr_dec_v2_arm9_elinux.so
      149508  /system/app/CactusPlayer.apk
      148816  /system/lib/libRSDriver.so
      148792  /system/lib/libbcc.so
      148772  /system/lib/lib_omx_client_arm11_elinux.so
      148576  /system/app/SoundRecorder.apk
      147068  /system/media/audio/alarms/Hassium.ogg
      147067  /system/media/audio/alarms/Helium.ogg
      145349  /system/framework/conscrypt.jar
      144112  /system/media/audio/ringtones/URSAMINOR.ogg
      143136  /system/bin/toolbox
      141924  /system/bin/pppd
      140032  /system/lib/lib_mp3_enc_v2_arm12_elinux.so
      139200  /system/lib/lib_oggvorbis_dec_v2_arm11_elinux.so
      137164  /system/lib/lib_wb_amr_dec_arm9_elinux.so
      132688  /system/lib/libandroidfw.so
      132637  /system/priv-app/InputDevices.apk
      131894  /system/priv-app/BackupRestoreConfirmation.apk
      129646  /system/priv-app/MediaProvider.apk
      129488  /system/lib/libpixelflinger.so
      127304  /system/priv-app/SettingsProvider.apk
      125516  /system/fonts/NotoSansDevanagari-Regular.ttf
      124140  /system/lib/libpng.so
      124016  /system/fonts/NotoSansDevanagariUI-Regular.ttf
      122268  /system/fonts/NotoSansDevanagari-Bold.ttf
      120836  /system/lib/hw/camera.imx6.so
      120732  /system/fonts/NotoSansDevanagariUI-Bold.ttf
      120668  /system/fonts/Roboto-BoldItalic.ttf
      120076  /system/lib/libvideoeditorplayer.so
      120012  /system/lib/libstagefright_soft_mpeg4enc.so
      119380  /system/fonts/DroidSansMono.ttf
      119376  /system/fonts/Roboto-ThinItalic.ttf
      118728  /system/fonts/Roboto-LightItalic.ttf
      118580  /system/fonts/RobotoCondensed-BoldItalic.ttf
      118468  /system/lib/libstagefright_soft_amrwbenc.so
      118064  /system/fonts/RobotoCondensed-Italic.ttf
      117240  /system/fonts/Roboto-Bold.ttf
      117227  /system/media/audio/alarms/Fermium.ogg
      117225  /system/media/audio/alarms/Argon.ogg
      115632  /system/fonts/Roboto-Thin.ttf
      115200  /system/fonts/Roboto-Light.ttf
      115036  /system/fonts/RobotoCondensed-Bold.ttf
      114976  /system/fonts/Roboto-Regular.ttf
      114568  /system/fonts/RobotoCondensed-Regular.ttf
      113180  /system/lib/lib_aac_dec_v2_arm12_elinux.so
      113055  /system/media/audio/ringtones/FreeFlight.ogg
      112981  /system/media/audio/ringtones/PERSEUS.ogg
      112676  /system/media/audio/alarms/Promethium.ogg
      112676  /system/media/audio/alarms/Platinum.ogg
      112128  /system/fonts/NotoSansTeluguUI-Regular.ttf
      112068  /system/fonts/NotoSansTelugu-Regular.ttf
      112024  /system/lib/libstagefright_soft_h264dec.so
      111520  /system/fonts/DroidNaskhUI-Regular.ttf
      111512  /system/fonts/NotoSansTeluguUI-Bold.ttf
      111424  /system/fonts/NotoSansTelugu-Bold.ttf
      109008  /system/bin/adb
      108945  /system/media/audio/ringtones/Scarabaeus.ogg
      108828  /system/app/Development.apk
      108600  /system/lib/libRSCpuRef.so
      108395  /system/etc/firmware/ath6k/AR6003/hw2.1.1/fw-4.bin
      108250  /system/framework/android.policy.jar
      108168  /system/lib/libext2fs.so
      107868  /system/fonts/NotoSansBengaliUI-Regular.ttf
      107752  /system/lib/libfilterfw.so
      107312  /system/fonts/NotoSansBengali-Regular.ttf
      107209  /system/priv-app/MusicFX.apk
      105864  /system/bin/dnsmasq
      104948  /system/fonts/NotoSansBengaliUI-Bold.ttf
      104376  /system/fonts/NotoSansBengali-Bold.ttf
      103988  /system/lib/librtp_jni.so
      103972  /system/etc/firmware/ath6k/AR6003/hw2.1.1/athwlan.bin
      103688  /system/lib/libstagefright_omx.so
      103252  /system/media/audio/alarms/Plutonium.ogg
      103196  /system/media/audio/alarms/Krypton.ogg
      101180  /system/fonts/Roboto-Italic.ttf
      100552  /system/lib/libvorbisidec.so
      100104  /system/bin/ubootenv
       99600  /system/lib/libm.so
       97614  /system/media/audio/alarms/Neptunium.ogg
       97611  /system/media/audio/alarms/Carbon.ogg
       96024  /system/bin/nvram
       95568  /system/lib/libz.so
       93012  /system/lib/lib_g.723.1_enc_arm11_elinux.so
       91888  /system/bin/vold
       91420  /system/lib/libdrmframework.so
       91400  /system/lib/libstagefright_soft_amrdec.so
       91380  /system/lib/libstagefright_httplive.so
       91340  /system/lib/libstagefright_soft_h264enc.so
       90315  /system/framework/okhttp.jar
       89684  /system/media/audio/ringtones/Atria.ogg
       89515  /system/media/audio/ringtones/Solarium.ogg
       89456  /system/fonts/DroidNaskh-Regular.ttf
       89051  /system/app/TelephonyProvider.apk
       88900  /system/lib/libandroid_servers.so
       88304  /system/lib/libvideoeditor_jni.so
       88264  /system/lib/lib_mp3_dec_v2_arm12_elinux.so
       87824  /system/xbin/micro_bench_static
       87684  /system/xbin/check-lost+found
       87380  /system/lib/libinput.so
       87320  /system/lib/libexpat.so
       87280  /system/lib/libjni_filtershow_filters.so
       87244  /system/lib/libstagefright_soft_mpeg4dec.so
       86694  /system/media/audio/ringtones/Pegasus.ogg
       83684  /system/bin/netd
       83592  /system/xbin/memtrack
       83236  /system/lib/libutils.so
       83164  /system/lib/lib_mpg2_parser_arm11_elinux.3.0.so
       80728  /system/lib/lib_flac_dec_v2_arm11_elinux.so
       79452  /system/xbin/libc_test_static
       79272  /system/bin/oatdump
       79200  /system/lib/egl/libGLES_android.so
       78984  /system/lib/lib_mkv_parser_arm11_elinux.3.0.so
       78968  /system/fonts/NotoSansKannadaUI-Regular.ttf
       78928  /system/fonts/NotoSansKannada-Regular.ttf
       77919  /system/media/audio/ringtones/Zeta.ogg
       77784  /system/fonts/NotoSansKannadaUI-Bold.ttf
       77724  /system/fonts/NotoSansKannada-Bold.ttf
       77644  /system/lib/libjavacrypto.so
       76044  /system/lib/egl/libEGL_VIVANTE.so
       75384  /system/xbin/add-property-tag
       75340  /system/xbin/su
       75252  /system/lib/hw/audio_policy.default.so
       74988  /system/lib/libmtp.so
       74976  /system/lib/libRScpp.so
       74045  /system/framework/android.test.runner.jar
       72078  /system/media/audio/ringtones/Testudo.ogg
       71256  /system/bin/check_prereq
       70952  /system/lib/libstagefright_foundation.so
       69840  /system/lib/lib_g.729ab_enc_arm11_elinux.so
       69814  /system/app/KeyChain.apk
       68588  /system/media/audio/ringtones/HalfwayHome.ogg
       68031  /system/framework/voip-common.jar
       67760  /system/bin/linker
       67204  /system/lib/libjni_pinyinime.so
       67032  /system/bin/dhcpcd
       65034  /system/priv-app/WallpaperCropper.apk
       64376  /system/lib/libbluetooth_jni.so
       63044  /system/bin/tc
       62892  /system/xbin/netperf
       62804  /system/bin/dex2oat
       62668  /system/lib/libstagefright_soft_mp3dec.so
       61780  /system/bin/wpa_cli
       61699  /system/media/audio/ringtones/Enter_the_Nexus.ogg
       61434  /system/media/audio/ringtones/DancinFool.ogg
       59816  /system/xbin/dexdump
       59700  /system/xbin/oprofiled
       59440  /system/priv-app/VpnDialogs.apk
       59288  /system/lib/soundfx/libbundlewrapper.so
       59024  /system/media/audio/ringtones/Ring_Classic_02.ogg
       58660  /system/lib/libcommon_time_client.so
       58656  /system/lib/libsensorservice.so
       58652  /system/lib/libandroid.so
       58632  /system/lib/lib_omx_player_arm11_elinux.so
       58612  /system/lib/libvpu.so
       58568  /system/lib/libstagefright_soft_amrnbenc.so
       58227  /system/media/audio/notifications/Iridium.ogg
       57764  /system/media/audio/ringtones/Rigel.ogg
       56616  /system/media/audio/ringtones/Playa.ogg
       56016  /system/fonts/NotoSansMalayalamUI-Regular.ttf
       55980  /system/fonts/NotoSansMalayalam-Regular.ttf
       55972  /system/fonts/NotoSansMalayalamUI-Bold.ttf
       55932  /system/fonts/NotoSansMalayalam-Bold.ttf
       54923  /system/media/audio/ringtones/Glacial_Groove.ogg
       54424  /system/lib/lib_avi_parser_arm11_elinux.3.0.so
       54419  /system/media/audio/ringtones/Orion.ogg
       54060  /system/lib/lib_g.723.1_dec_arm11_elinux.so
       53660  /system/bin/applypatch
       52809  /system/media/audio/ringtones/Ring_Synth_02.ogg
       52536  /system/media/audio/ringtones/Revelation.ogg
       52416  /system/framework/mms-common.jar
       52219  /system/etc/firmware/ar3k/1020200/RamPatch.txt
       51756  /system/lib/lib_aacd_wrap_arm12_elinux_android.so
       51499  /system/media/audio/alarms/Barium.ogg
       51296  /system/lib/lib_vpu_wrapper.so
       50578  /system/media/audio/ringtones/Eastern_Sky.ogg
       50545  /system/media/audio/ringtones/DonMessWivIt.ogg
       50520  /system/bin/drmserver
       50484  /system/lib/libstagefright_chromium_http.so
       50324  /system/lib/libstagefright_amrnb_common.so
       49978  /system/media/audio/ringtones/GameOverGuitar.ogg
       49108  /system/media/audio/ringtones/Road_Trip.ogg
       48970  /system/framework/monkey.jar
       48968  /system/media/audio/ringtones/BussaMove.ogg
       47879  /system/priv-app/Shell.apk
       47812  /system/media/audio/alarms/Scandium.ogg
       46673  /system/media/audio/ringtones/Big_Easy.ogg
       46664  /system/lib/drm/libfwdlockengine.so
       46608  /system/lib/lib_omx_utils_v2_arm11_elinux.so
       46568  /system/lib/lib_mp3_parser_arm11_elinux.3.0.so
       46464  /system/lib/libselinux.so
       46425  /system/media/audio/ringtones/FriendlyGhost.ogg
       46298  /system/framework/uiautomator.jar
       46049  /system/media/audio/ringtones/Thunderfoot.ogg
       44422  /system/media/audio/ringtones/Seville.ogg
       44376  /system/media/audio/ringtones/Girtab.ogg
       44186  /system/media/audio/ringtones/SilkyWay.ogg
       44104  /system/media/audio/ringtones/Nassau.ogg
       43965  /system/media/audio/ringtones/Ring_Synth_04.ogg
       43656  /system/bin/mxc_vpu_test
       43522  /system/media/audio/notifications/TaDa.ogg
       43076  /system/fonts/NotoSansKhmerUI-Regular.ttf
       42772  /system/xbin/netserver
       42540  /system/media/audio/ringtones/Lyra.ogg
       42488  /system/media/audio/alarms/Osmium.ogg
       42336  /system/bin/dumpstate
       42304  /system/lib/hw/hwcomposer_viv.imx6.so
       42240  /system/lib/lib_omx_vpu_dec_v2_arm11_elinux.so
       42220  /system/media/audio/ringtones/Safari.ogg
       42164  /system/lib/libext4_utils.so
       41828  /system/media/audio/ringtones/BirdLoop.ogg
       41355  /system/media/audio/ringtones/Nairobi.ogg
       41328  /system/fonts/NotoSansKhmerUI-Bold.ttf
       41094  /system/media/audio/ringtones/Growl.ogg
       39921  /system/media/audio/ringtones/Champagne_Edition.ogg
       39738  /system/media/audio/ringtones/Funk_Yall.ogg
       39508  /system/lib/libril.so
       39413  /system/media/audio/ringtones/Shes_All_That.ogg
       39203  /system/media/audio/notifications/Strontium.ogg
       39199  /system/media/audio/ringtones/Paradise_Island.ogg
       39174  /system/media/audio/ringtones/Bollywood.ogg
       39138  /system/media/audio/ringtones/Savannah.ogg
       39092  /system/fonts/NotoSansKhmer-Regular.ttf
       39040  /system/lib/lib_g.729ab_dec_arm11_elinux.so
       39025  /system/media/audio/ringtones/Noises2.ogg
       38875  /system/media/audio/ringtones/Calypso_Steel.ogg
       38688  /system/media/audio/ringtones/Gimme_Mo_Town.ogg
       38656  /system/lib/libjhead.so
       38556  /system/fonts/NotoSansKhmer-Bold.ttf
       38517  /system/media/audio/notifications/Heaven.ogg
       38496  /system/lib/lib_omx_fsl_parser_v2_arm11_elinux.so
       38340  /system/bin/keystore
       38324  /system/bin/screenshot
       38307  /system/media/audio/ringtones/LoopyLounge.ogg
       38300  /system/lib/libjni_jpegstream.so
       38260  /system/bin/mke2fs
       38192  /system/lib/libcutils.so
       38176  /system/lib/libkeystore_binder.so
       38164  /system/lib/libui.so
       38100  /system/lib/lib_omx_camera_source_arm11_elinux.so
       38068  /system/lib/libfsl_jpeg_enc_arm11_elinux.so
       38054  /system/media/audio/ringtones/Machina.ogg
       38048  /system/lib/lib_flv_parser_arm11_elinux.3.0.so
       37952  /system/media/audio/ringtones/CrayonRock.ogg
       37847  /system/media/audio/ringtones/Steppin_Out.ogg
       37672  /system/media/audio/ringtones/Cairo.ogg
       37312  /system/lib/lib_mp4_muxer_arm11_elinux.so
       37179  /system/media/audio/ringtones/Club_Cubano.ogg
       36920  /system/fonts/NotoSansTamilUI-Bold.ttf
       36900  /system/fonts/NotoSansTamil-Bold.ttf
       36852  /system/xbin/sqlite3
       36812  /system/fonts/NotoSansTamilUI-Regular.ttf
       36796  /system/fonts/NotoSansTamil-Regular.ttf
       36620  /system/media/audio/ringtones/Terminated.ogg
       36585  /system/media/audio/ringtones/Eridani.ogg
       36539  /system/media/audio/ringtones/Third_Eye.ogg
       36287  /system/media/audio/ringtones/Noises1.ogg
       36049  /system/media/audio/ringtones/Backroad.ogg
       34864  /system/media/audio/ringtones/MildlyAlarming.ogg
       34627  /system/media/audio/ringtones/LoveFlute.ogg
       34601  /system/media/audio/notifications/Beat_Box_Android.ogg
       34420  /system/fonts/NotoSansLao-Regular.ttf
       34080  /system/lib/libvariablespeed.so
       34080  /system/lib/libdrmpassthruplugin.so
       34044  /system/lib/lib_omx_vpu_enc_v2_arm11_elinux.so
       34040  /system/lib/librxtxSerial.so
       34028  /system/fonts/NotoSansLaoUI-Regular.ttf
       33088  /system/lib/lib_vorbisd_wrap_arm11_elinux_android.so
       32933  /system/media/audio/ringtones/No_Limits.ogg
       32896  /system/fonts/NotoSansLaoUI-Bold.ttf
       32788  /system/fonts/NotoSansLao-Bold.ttf
       32690  /system/app/BasicDreams.apk
       32664  /system/lib/lib_H263_dec_v2_arm11_elinux.so
       32640  /system/media/audio/ringtones/OrganDub.ogg
       32132  /system/lib/hw/audio.primary.imx6.so
       31941  /system/media/audio/ringtones/CASSIOPEIA.ogg
       31778  /system/media/audio/ringtones/Draco.ogg
       31641  /system/media/audio/ringtones/RomancingTheTone.ogg
       31563  /system/media/audio/ringtones/EtherShake.ogg
       31280  /system/lib/librs_jni.so
       31170  /system/media/audio/ringtones/CANISMAJOR.ogg
       31136  /system/media/audio/ringtones/World.ogg
       31133  /system/media/audio/ringtones/CanisMajor.ogg
       30925  /system/media/audio/ringtones/CurveBall.ogg
       30759  /system/media/audio/ringtones/BentleyDubs.ogg
       30615  /system/media/audio/ringtones/CaribbeanIce.ogg
       30488  /system/bin/ping6
       30280  /system/fonts/DroidSansHebrew-Bold.ttf
       30220  /system/bin/installd
       30024  /system/fonts/DroidSansHebrew-Regular.ttf
       30020  /system/lib/libhardware_legacy.so
       29884  /system/lib/lib_aac_parser_arm11_elinux.3.0.so
       29876  /system/lib/libsqlite_jni.so
       29807  /system/media/audio/ringtones/Cygnus.ogg
       29476  /system/media/audio/notifications/vega.ogg
       29310  /system/media/audio/notifications/Vega.ogg
       28898  /system/media/audio/ringtones/SitarVsSitar.ogg
       28691  /system/media/audio/ringtones/VeryAlarmed.ogg
       28433  /system/media/audio/ringtones/BeatPlucker.ogg
       28124  /system/media/audio/ringtones/MidEvilJaunt.ogg
       28092  /system/lib/libext2_blkid.so
       27860  /system/media/audio/notifications/Xenon.ogg
       27852  /system/media/audio/notifications/regulus.ogg
       27849  /system/media/audio/notifications/Antimony.ogg
       27672  /system/lib/lib_mp3d_wrap_arm12_elinux_android.so
       27644  /system/media/audio/ringtones/Centaurus.ogg
       27172  /system/lib/lib_peq_v2_arm11_elinux.so
       27052  /system/media/audio/alarms/Alarm_Classic.ogg
       27025  /system/media/audio/alarms/Oxygen.ogg
       27025  /system/media/audio/alarms/Cesium.ogg
       26662  /system/media/audio/ringtones/Noises3.ogg
       26612  /system/media/audio/notifications/sirius.ogg
       26310  /system/media/audio/ringtones/BOOTES.ogg
       26298  /system/media/audio/ringtones/TwirlAway.ogg
       26201  /system/priv-app/ExternalStorageProvider.apk
       26200  /system/bin/fsck_msdos
       26180  /system/media/audio/notifications/SpaceSeed.ogg
       26158  /system/media/audio/notifications/CetiAlpha.ogg
       26152  /system/bin/hostapd_cli
       26144  /system/media/audio/ringtones/SpringyJalopy.ogg
       26124  /system/bin/ping
       26120  /system/lib/libdrmframework_jni.so
       26072  /system/lib/hw/gralloc.imx6.so
       26052  /system/lib/hw/gps.default.so
       25944  /system/bin/cjpeg
       25944  /system/bin/djpeg
       25904  /system/lib/libstagefright_soft_gsmdec.so
       25872  /system/lib/soundfx/libreverbwrapper.so
       25808  /system/lib/lib_omx_https_pipe_v3_arm11_elinux.so
       25780  /system/lib/libnbaio.so
       25724  /system/lib/libubi.so
       25680  /system/lib/lib_flac_parser_arm11_elinux.3.0.so
       25680  /system/lib/lib_ogg_parser_arm11_elinux.3.0.so
       25677  /system/framework/javax.obex.jar
       25632  /system/lib/libGLESv2.so
       25356  /system/media/audio/notifications/Radon.ogg
       25014  /system/media/audio/ringtones/ANDROMEDA.ogg
       24973  /system/media/audio/ringtones/Andromeda.ogg
       24651  /system/app/FSLOta.apk
       24298  /system/media/audio/notifications/Shaula.ogg
       24040  /system/media/audio/notifications/Upsilon.ogg
       23844  /system/lib/libiprouteutil.so
       23463  /system/media/audio/notifications/Pollux.ogg
       23416  /system/lib/libcamera_metadata.so
       22962  /system/media/audio/ringtones/hydra.ogg
       22924  /system/media/audio/ringtones/Hydra.ogg
       22344  /system/media/audio/notifications/Procyon.ogg
       22088  /system/bin/mxc_ipudev_test
       22016  /system/xbin/micro_bench
       22003  /system/media/audio/notifications/Fomalhaut.ogg
       21880  /system/fonts/NotoSansThai-Regular.ttf
       21852  /system/bin/bootanimation
       21840  /system/bin/clatd
       21840  /system/fonts/NotoSansThaiUI-Regular.ttf
       21820  /system/lib/libbt-hci.so
       21792  /system/bin/debuggerd
       21716  /system/lib/lib_omx_surface_render_arm11_elinux.so
       21712  /system/lib/lib_omx_streaming_parser_arm11_elinux.so
       21700  /system/lib/lib_omx_udps_pipe_arm11_elinux.so
       21700  /system/lib/lib_omx_rtps_pipe_arm11_elinux.so
       21696  /system/lib/libgccdemangle.so
       21696  /system/lib/lib_omx_core_v2_arm11_elinux.so
       21688  /system/lib/libsysutils.so
       21688  /system/lib/libnetutils.so
       21680  /system/lib/libmdnssd.so
       21640  /system/lib/libcompiler_rt.so
       21600  /system/lib/libstagefright_avc_common.so
       21536  /system/lib/libGLESv1_CM.so
       21457  /system/media/audio/ringtones/Aquila.ogg
       21191  /system/media/audio/notifications/Rubidium.ogg
       21153  /system/media/audio/alarms/Alarm_Beep_03.ogg
       21096  /system/fonts/DroidSansGeorgian.ttf
       21007  /system/media/audio/ringtones/Ring_Digital_02.ogg
       20983  /system/media/audio/notifications/F1_New_MMS.ogg
       20976  /system/media/audio/notifications/Sirrah.ogg
       20531  /system/media/audio/notifications/Polaris.ogg
       20052  /system/media/audio/notifications/OnTheHunt.ogg
       19586  /system/usr/share/bmd/RFFstd_501.bmd
       19530  /system/priv-app/DefaultContainerService.apk
       19381  /system/media/audio/notifications/Beryllium.ogg
       19341  /system/app/CubeLiveWallpapers.apk
       19315  /system/framework/am.jar
       19121  /system/media/audio/notifications/CaffeineSnake.ogg
       19048  /system/lib/libspeexresampler.so
       18948  /system/lib/lib_amr_parser_arm11_elinux.3.0.so
       18884  /system/media/audio/notifications/pizzicato.ogg
       18858  /system/media/audio/notifications/Tinkerbell.ogg
       18854  /system/media/audio/notifications/Merope.ogg
       18792  /system/fonts/NotoSansThai-Bold.ttf
       18752  /system/fonts/NotoSansThaiUI-Bold.ttf
       18674  /system/media/audio/notifications/Fluorine.ogg
       18659  /system/media/audio/notifications/DearDeer.ogg
       18442  /system/media/audio/notifications/Highwire.ogg
       18235  /system/media/audio/notifications/Thallium.ogg
       18220  /system/lib/libext2_e2p.so
       18155  /system/app/PicoTts.apk
       18138  /system/media/audio/notifications/Lalande.ogg
       18121  /system/media/audio/notifications/Cobalt.ogg
       18044  /system/lib/hw/gralloc_viv.imx6.so
       18043  /system/media/audio/ringtones/Vespa.ogg
       17968  /system/lib/libaudioeffect_jni.so
       17952  /system/bin/atrace
       17912  /system/bin/mtpd
       17868  /system/bin/screenrecord
       17840  /system/bin/ubiformat
       17796  /system/lib/hw/audio.r_submix.default.so
       17788  /system/lib/lib_mp3_parser_v2_arm11_elinux.so
       17788  /system/bin/magd
       17780  /system/lib/lib_omx_libav_video_dec_arm11_elinux.so
       17752  /system/lib/libtinyalsa.so
       17748  /system/bin/chat
       17740  /system/bin/pngtest
       17728  /system/lib/hw/hwcomposer.imx6.so
       17711  /system/media/audio/notifications/Mira.ogg
       17692  /system/bin/sdcard
       17684  /system/lib/libsparse.so
       17656  /system/lib/lib_omx_core_mgr_v2_arm11_elinux.so
       17652  /system/vendor/lib/libbt-vendor.so
       17644  /system/lib/libmedialogservice.so
       17620  /system/lib/lib_omx_amr_enc_v2_arm11_elinux.so
       17620  /system/lib/lib_omx_sorenson_dec_v2_arm11_elinux.so
       17620  /system/lib/lib_omx_amr_dec_v2_arm11_elinux.so
       17604  /system/lib/lib_omx_osal_v2_arm11_elinux.so
       17592  /system/lib/libvideoeditor_osal.so
       17592  /system/lib/libgabi++.so
       17588  /system/lib/libnativehelper.so
       17576  /system/lib/lib_omx_audio_processor_v2_arm11_elinux.so
       17564  /system/lib/libstagefright_soft_vorbisdec.so
       17499  /system/framework/pm.jar
       17488  /system/lib/lib_wav_parser_arm11_elinux.3.0.so
       17484  /system/lib/libg2d
       17484  /system/lib/libg2d.so
       17299  /system/etc/firmware/ar3k/30101/RamPatch.txt
       17047  /system/etc/firmware/ath6k/AR6003/hw2.1.1/athtcmd_ram.bin
       16985  /system/media/audio/notifications/DontPanic.ogg
       16905  /system/media/audio/notifications/pixiedust.ogg
       16639  /system/media/audio/ringtones/Pyxis.ogg
       16594  /system/etc/component_register
       16487  /system/media/audio/notifications/Voila.ogg
       16243  /system/media/audio/notifications/moonbeam.ogg
       16176  /system/lib/lib_flac_parser_arm11_elinux.so
       16130  /system/media/audio/alarms/Alarm_Beep_01.ogg
       16108  /system/media/audio/notifications/Betelgeuse.ogg
       15866  /system/media/audio/notifications/Tejat.ogg
       15851  /system/media/audio/notifications/Argon.ogg
       15840  /system/usr/keychars/qwerty.kcm
       15714  /system/media/audio/notifications/Bellatrix.ogg
       15710  /system/usr/keychars/qwerty2.kcm
       15619  /system/media/audio/notifications/KzurbSonar.ogg
       15563  /system/media/audio/ringtones/NewPlayer.ogg
       15476  /system/media/audio/ringtones/Ding.ogg
       15384  /system/media/audio/ringtones/Carina.ogg
       15368  /system/lib/lib_aac_parser_arm11_elinux.so
       15199  /system/media/audio/notifications/Electra.ogg
       15146  /system/media/audio/ringtones/InsertCoin.ogg
       14958  /system/etc/event-log-tags
       14696  /system/usr/keychars/Generic.kcm
       14648  /system/media/audio/notifications/Castor.ogg
       14645  /system/media/audio/notifications/Palladium.ogg
       14464  /system/usr/keychars/Virtual.kcm
       14456  /system/priv-app/FusedLocation.apk
       14416  /system/media/audio/notifications/Deneb.ogg
       14380  /system/xbin/opcontrol
       14188  /system/bin/asan/app_process
       13986  /system/media/audio/notifications/Hojus.ogg
       13956  /system/lib/lib_wav_parser_arm11_elinux.so
       13856  /system/fonts/DroidSansArmenian.ttf
       13732  /system/lib/hw/power.imx6.so
       13680  /system/xbin/memtrack_share
       13672  /system/bin/logwrapper
       13664  /system/bin/ubinfo
       13656  /system/bin/i2cset
       13656  /system/bin/i2cget
       13656  /system/bin/i2cdump
       13648  /system/bin/logcat
       13644  /system/lib/soundfx/libaudiopreprocessing.so
       13640  /system/xbin/nc
       13636  /system/lib/lib_omx_libav_audio_dec_arm11_elinux.so
       13620  /system/lib/ssl/engines/libkeystore.so
       13608  /system/bin/i2cdetect
       13608  /system/bin/mediaserver
       13604  /system/xbin/rawbu
       13600  /system/xbin/libc_test
       13584  /system/lib/libjni_eglfence.so
       13568  /system/lib/lib_omx_ipulib_render_arm11_elinux.so
       13568  /system/lib/lib_omx_fsl_muxer_v2_arm11_elinux.so
       13548  /system/lib/libext2_profile.so
       13544  /system/lib/libpowermanager.so
       13532  /system/lib/hw/hwcomposer_fsl.imx6.so
       13524  /system/lib/lib_omx_flac_dec_v2_arm11_elinux.so
       13520  /system/lib/lib_omx_aac_enc_v2_arm11_elinux.so
       13520  /system/lib/lib_omx_mp3_enc_v2_arm11_elinux.so
       13520  /system/lib/lib_omx_ac3toiec937_arm11_elinux.so
       13520  /system/lib/lib_omx_clock_v2_arm11_elinux.so
       13504  /system/lib/liblog.so
       13500  /system/lib/libstagefrighthw.so
       13496  /system/lib/libjni_tinyplanet.so
       13492  /system/lib/libnetlink.so
       13488  /system/lib/libcorkscrew.so
       13480  /system/lib/lib_omx_android_audio_render_arm11_elinux.so
       13468  /system/lib/lib_omx_wmv_dec_v2_arm11_elinux.so
       13468  /system/lib/lib_omx_pcm_dec_v2_arm11_elinux.so
       13464  /system/lib/libstagefright_soft_g711dec.so
       13460  /system/lib/libstagefright_soft_rawdec.so
       13460  /system/lib/lib_id3_parser_arm11_elinux.so
       13444  /system/lib/libdiskconfig.so
       13420  /system/lib/lib_omx_async_write_pipe_arm11_elinux.so
       13416  /system/lib/libvideoeditor_videofilters.so
       13396  /system/lib/libsoftkeymaster.so
       13244  /system/media/audio/notifications/Drip.ogg
       13244  /system/media/audio/notifications/Proxima.ogg
       13126  /system/media/audio/notifications/Capella.ogg
       12862  /system/usr/share/bmd/RFFspeed_501.bmd
       12697  /system/media/audio/notifications/Zirconium.ogg
       12401  /system/media/audio/ui/LowBattery.ogg
       12214  /system/media/audio/notifications/Gallium.ogg
       12025  /system/media/audio/ui/WirelessChargingStarted.ogg
       11950  /system/media/audio/notifications/F1_MissedCall.ogg
       11948  /system/media/audio/notifications/Canopus.ogg
       11941  /system/media/audio/notifications/F1_New_SMS.ogg
       11882  /system/usr/keylayout/Vendor_0211_Product_0012.kl
       11824  /system/app/HTMLViewer.apk
       11711  /system/framework/core-junit.jar
       11589  /system/etc/firmware/ath6k/AR6003/hw2.1.1/ath6kl-fwencoder.orig
       11566  /system/media/audio/notifications/Krypton.ogg
       11368  /system/media/audio/alarms/Alarm_Buzzer.ogg
       11218  /system/app/SpeechRecorder.apk
       11160  /system/media/audio/alarms/Alarm_Rooster_02.ogg
       10936  /system/media/audio/notifications/Cricket.ogg
       10907  /system/app/UserDictionaryProvider.apk
       10893  /system/media/audio/notifications/Selenium.ogg
       10832  /system/lib/lib_g.726_dec_arm11_elinux.so
       10832  /system/lib/lib_g.726_enc_arm11_elinux.so
       10435  /system/media/audio/notifications/Talitha.ogg
       10421  /system/media/audio/notifications/tweeters.ogg
       10414  /system/media/audio/notifications/Adara.ogg
       10375  /system/media/audio/notifications/Antares.ogg
        9979  /system/etc/security/mac_permissions.xml
        9900  /system/bin/ubiupdatevol
        9852  /system/bin/ubimkvol
        9847  /system/media/audio/ui/KeypressInvalid.ogg
        9812  /system/lib/hw/gralloc.default.so
        9784  /system/xbin/librank
        9740  /system/lib/libruntime-ril-port.so
        9680  /system/bin/bdt
        9680  /system/framework/webview/paks/ml.pak
        9664  /system/bin/servicemanager
        9608  /system/lib/libttscompat.so
        9576  /system/lib/libsoundpool.so
        9572  /system/bin/keystore_cli
        9572  /system/bin/ubiattach
        9568  /system/bin/blkid
        9568  /system/bin/make_ext4fs
        9568  /system/bin/ubidetach
        9564  /system/bin/showlease
        9564  /system/xbin/procrank
        9564  /system/xbin/latencytop
        9560  /system/bin/flash_image
        9560  /system/bin/app_process
        9556  /system/bin/rild
        9552  /system/lib/lib_omx_wma_dec_v2_arm11_elinux.so
        9552  /system/bin/gmem_info
        9532  /system/lib/hw/audio.a2dp.default.so
        9528  /system/lib/libwebviewchromium_plat_support.so
        9524  /system/lib/lib_omx_ec3_dec_v2_arm11_elinux.so
        9524  /system/lib/lib_omx_aac_dec_v2_arm11_elinux.so
        9508  /system/xbin/directiotest
        9504  /system/lib/libjni_pacprocessor.so
        9504  /system/bin/tinyplay
        9504  /system/bin/dalvikvm
        9504  /system/xbin/showslab
        9500  /system/bin/run-as
        9500  /system/bin/gzip
        9500  /system/bin/mmdc
        9500  /system/bin/service
        9500  /system/bin/dumpsys
        9500  /system/xbin/showmap
        9500  /system/xbin/procmem
        9488  /system/lib/lib_omx_vorbis_dec_v2_arm11_elinux.so
        9484  /system/lib/lib_omx_ac3_dec_v2_arm11_elinux.so
        9456  /system/bin/screencap
        9452  /system/bin/dexopt
        9452  /system/xbin/cpustats
        9448  /system/lib/libportable.so
        9448  /system/bin/tinymix
        9448  /system/xbin/ksminfo
        9444  /system/lib/libeffects.so
        9436  /system/lib/lib_omx_android_audio_source_arm11_elinux.so
        9432  /system/lib/soundfx/libdownmix.so
        9428  /system/lib/soundfx/libldnhncr.so
        9412  /system/lib/libjhead_jni.so
        9404  /system/lib/libOpenMAXAL.so
        9404  /system/lib/libOpenSLES.so
        9400  /system/lib/libext2_com_err.so
        9396  /system/lib/libwpa_client.so
        9392  /system/lib/libgpuhelper
        9392  /system/lib/liblogwrap.so
        9392  /system/lib/libgpuhelper.so
        9388  /system/lib/libCAN.so
        9380  /system/lib/lib_omx_audio_fake_render_arm11_elinux.so
        9380  /system/lib/soundfx/libvisualizer.so
        9376  /system/lib/lib_omx_wav_parser_v2_arm11_elinux.so
        9376  /system/lib/lib_omx_mp3_parser_v2_arm11_elinux.so
        9376  /system/lib/lib_omx_aac_parser_v2_arm11_elinux.so
        9376  /system/lib/lib_omx_flac_parser_v2_arm11_elinux.so
        9376  /system/media/audio/ui/camera_focus.ogg
        9372  /system/lib/lib_omx_local_file_pipe_v2_arm11_elinux.so
        9372  /system/lib/lib_omx_mp3_dec_v2_arm11_elinux.so
        9372  /system/lib/lib_omx_ra_dec_v2_arm11_elinux.so
        9368  /system/lib/lib_omx_shared_fd_pipe_arm11_elinux.so
        9364  /system/lib/libsuspend.so
        9352  /system/lib/libstagefright_yuv.so
        9348  /system/lib/libext2_uuid.so
        9344  /system/lib/libusbhost.so
        9344  /system/lib/libpagemap.so
        9319  /system/framework/webview/paks/ta.pak
        9300  /system/lib/libaudioutils.so
        9292  /system/lib/libdl.so
        9292  /system/lib/libETC1.so
        9185  /system/framework/webview/paks/te.pak
        9096  /system/usr/keylayout/Generic.kl
        9069  /system/media/audio/notifications/Spica.ogg
        8981  /system/framework/webview/paks/kn.pak
        8927  /system/media/audio/notifications/Alya.ogg
        8911  /system/media/audio/notifications/Doink.ogg
        8903  /system/etc/security/cacerts/33815e15.0
        8687  /system/etc/security/cacerts/33815e15.1
        8642  /system/etc/security/cacerts/3c9a4d3b.0
        8507  /system/framework/com.android.location.provider.jar
        8479  /system/media/audio/notifications/Syrma.ogg
        8405  /system/etc/security/cacerts/1eb37bdf.0
        8390  /system/etc/security/cacerts/9f533518.0
        8308  /system/media/audio/ui/Lock.ogg
        8240  /system/media/audio/ui/Undock.ogg
        8216  /system/framework/webview/paks/bn.pak
        8186  /system/priv-app/ProxyHandler.apk
        8040  /system/lib/modules/compat.ko
        8002  /system/etc/security/cacerts/9339512a.0
        7933  /system/media/audio/notifications/Arcturus.ogg
        7908  /system/media/audio/notifications/arcturus.ogg
        7853  /system/media/audio/ui/Unlock.ogg
        7848  /system/etc/security/cacerts/c8763593.0
        7768  /system/framework/webview/paks/gu.pak
        7717  /system/etc/security/cacerts/cb156124.0
        7716  /system/framework/content.jar
        7593  /system/media/audio/notifications/Aldebaran.ogg
        7539  /system/etc/security/cacerts/d16a5865.0
        7537  /system/etc/security/cacerts/9ab62355.0
        7536  /system/etc/security/cacerts/f80cc7f6.0
        7523  /system/etc/security/cacerts/450c6e38.0
        7519  /system/etc/security/cacerts/e60bf0c0.0
        7500  /system/framework/webview/paks/th.pak
        7497  /system/etc/fallback_fonts.xml
        7486  /system/framework/webview/paks/mr.pak
        7453  /system/etc/security/cacerts/48a195d8.0
        7445  /system/media/audio/notifications/Helium.ogg
        7439  /system/etc/security/cacerts/5046c355.0
        7432  /system/etc/security/cacerts/3c860d51.0
        7431  /system/etc/security/cacerts/ea169617.0
        7364  /system/etc/security/cacerts/3d441de8.0
        7356  /system/etc/security/cacerts/5f47b495.0
        7346  /system/etc/security/cacerts/7a819ef2.0
        7326  /system/framework/webview/paks/hi.pak
        7304  /system/etc/security/cacerts/2fb1850a.0
        7233  /system/etc/security/cacerts/7672ac4b.0
        7223  /system/etc/security/cacerts/9d6523ce.0
        7170  /system/etc/security/cacerts/87753b0d.0
        7162  /system/etc/security/cacerts/e775ed2d.0
        7088  /system/etc/security/cacerts/1dcd6f4c.0
        7064  /system/etc/security/cacerts/9576d26b.0
        7060  /system/etc/security/cacerts/21855f49.0
        7040  /system/etc/security/cacerts/ee90b008.0
        7038  /system/etc/security/cacerts/f61bff45.0
        7021  /system/media/audio/notifications/Altair.ogg
        7016  /system/etc/security/cacerts/2d9dafe4.0
        7016  /system/etc/security/cacerts/82223c44.0
        6999  /system/etc/security/cacerts/dbc54cab.0
        6979  /system/etc/security/cacerts/63a2c897.0
        6895  /system/priv-app/SharedStorageBackup.apk
        6884  /system/lib/lib_g.711_enc_arm11_elinux.so
        6880  /system/fonts/Clockopia.ttf
        6863  /system/etc/security/cacerts/b0ed035a.0
        6852  /system/framework/webview/paks/el.pak
        6683  /system/framework/bmgr.jar
        6652  /system/media/audio/notifications/Plastic_Pipe.ogg
        6483  /system/media/audio/ui/VideoRecord.ogg
        6327  /system/media/audio/ui/Dock.ogg
        6246  /system/media/audio/ui/KeypressReturn.ogg
        6145  /system/etc/security/cacerts/add67345.0
        6110  /system/framework/webview/paks/bg.pak
        6043  /system/etc/media_codecs.xml
        6031  /system/etc/security/cacerts/5cf9d536.0
        5991  /system/framework/webview/paks/uk.pak
        5952  /system/media/audio/ui/KeypressSpacebar.ogg
        5951  /system/media/audio/ui/camera_click.ogg
        5940  /system/etc/security/cacerts/fb126c6d.0
        5898  /system/media/audio/alarms/Alarm_Beep_02.ogg
        5837  /system/media/audio/ui/KeypressStandard.ogg
        5832  /system/media/audio/ui/KeypressDelete.ogg
        5807  /system/framework/webview/paks/am.pak
        5806  /system/framework/webview/paks/sr.pak
        5785  /system/etc/security/cacerts/2e8714cb.0
        5732  /system/lib/lib_g.711_dec_arm11_elinux.so
        5700  /system/framework/webview/paks/ru.pak
        5696  /system/priv-app/OneTimeInitializer.apk
        5675  /system/etc/security/cacerts/aeb67534.0
        5658  /system/etc/permissions/platform.xml
        5646  /system/app/PacProcessor.apk
        5568  /system/bin/gdbjithelper
        5556  /system/framework/webview/paks/ar.pak
        5532  /system/bin/netcfg
        5512  /system/etc/security/cacerts/418595b9.0
        5491  /system/etc/audio_effects.conf
        5468  /system/xbin/kexecload
        5461  /system/etc/security/cacerts/a0bc6fbb.0
        5441  /system/etc/security/cacerts/ee7cd6fb.0
        5428  /system/lib/hw/lights.imx6.so
        5424  /system/lib/hw/audio.usb.default.so
        5420  /system/bin/corrupt_gdt_free_blocks
        5416  /system/bin/set_ext4_err_bit
        5412  /system/bin/sensorservice
        5412  /system/xbin/sane_schedstat
        5408  /system/bin/bugreport
        5408  /system/bin/asanwrapper
        5408  /system/etc/ppp/ip-up-vpn
        5404  /system/bin/tinycap
        5392  /system/lib/hw/audio.primary.default.so
        5388  /system/lib/hw/keystore.default.so
        5388  /system/lib/hw/local_time.default.so
        5388  /system/lib/hw/power.default.so
        5384  /system/lib/hw/consumerir.imx6.so
        5375  /system/etc/security/cacerts/119afc2e.0
        5369  /system/framework/webview/paks/fa.pak
        5360  /system/bin/radiooptions
        5360  /system/bin/reverse_debug
        5360  /system/bin/surfaceflinger
        5360  /system/etc/ppp/ip-down-ppp0
        5356  /system/bin/schedtest
        5356  /system/xbin/timeinfo
        5356  /system/xbin/cpueater
        5356  /system/xbin/daemonize
        5356  /system/etc/ppp/ip-up-ppp0
        5352  /system/lib/libpower.so
        5352  /system/bin/reboot
        5348  /system/bin/ndc
        5348  /system/bin/vdc
        5336  /system/lib/soundfx/libeffectproxy.so
        5322  /system/etc/security/cacerts/08aef7bb.0
        5316  /system/lib/libdefcontainer_jni.so
        5308  /system/lib/libconnectivitymanager.so
        5308  /system/lib/libhardware.so
        5304  /system/lib/libthread_db.so
        5304  /system/lib/libstdc++.so
        5296  /system/lib/libbt-utils.so
        5296  /system/lib/interrupter.so
        5296  /system/lib/libmemtrack.so
        5268  /system/lib/libsurfaceflinger_ddmconnection.so
        5264  /system/lib/lib_omx_res_mgr_v2_arm11_elinux.so
        5264  /system/lib/invoke_mock_media_player.so
        5244  /system/lib/libsync.so
        5244  /system/lib/libion.so
        5240  /system/lib/libctest.so
        5240  /system/lib/libADC.so
        5229  /system/etc/security/cacerts/bf64f35b.0
        5219  /system/etc/security/cacerts/facacbc6.0
        5216  /system/lib/libfilterpack_imageproc.so
        5216  /system/lib/libstagefright_enc_common.so
        5208  /system/lib/libSR_AudioIn.so
        5200  /system/lib/librilutils.so
        5200  /system/lib/libnfc_ndef.so
        5196  /system/lib/libI2C.so
        5196  /system/lib/libSPI.so
        5189  /system/etc/security/cacerts/7a481e66.0
        5189  /system/etc/security/cacerts/2afc57aa.0
        5165  /system/etc/security/cacerts/524d9b43.0
        5160  /system/lib/libjnigraphics.so
        5148  /system/lib/libipu.so
        5148  /system/lib/libbcc.sha1.so
        5136  /system/etc/security/cacerts/ff783690.0
        5136  /system/media/audio/ui/Effect_Tick.ogg
        5130  /system/etc/security/cacerts/d537fba6.0
        5125  /system/etc/media_profiles.xml
        5116  /system/fonts/AndroidClock.ttf
        5106  /system/etc/security/cacerts/4fbd6bfa.0
        4997  /system/etc/security/cacerts/40dc992e.0
        4979  /system/etc/security/cacerts/76579174.0
        4961  /system/etc/security/cacerts/d66b55d9.0
        4959  /system/etc/security/cacerts/56b8a0b6.0
        4957  /system/etc/security/cacerts/d7746a63.0
        4947  /system/etc/security/cacerts/d64f06f3.0
        4933  /system/etc/firmware/ar3k/1020200/PS_ASIC_class_1.pst
        4927  /system/etc/security/cacerts/124bbd54.0
        4923  /system/etc/security/cacerts/1df5a75f.0
        4919  /system/etc/security/cacerts/02b73561.0
        4892  /system/etc/security/cacerts/3c58f906.0
        4891  /system/etc/security/cacerts/75680d2e.0
        4890  /system/etc/security/cacerts/1dac3003.0
        4860  /system/etc/security/cacerts/e8651083.0
        4836  /system/etc/security/cacerts/052e396b.0
        4834  /system/etc/security/cacerts/5a3f0ff8.0
        4827  /system/etc/security/cacerts/58a44af1.0
        4826  /system/etc/security/cacerts/60afe812.0
        4824  /system/fonts/AndroidClock_Highlight.ttf
        4824  /system/fonts/AndroidClock_Solid.ttf
        4821  /system/etc/security/cacerts/e268a4c5.0
        4819  /system/etc/security/cacerts/91739615.0
        4817  /system/etc/security/cacerts/455f1b52.0
        4814  /system/etc/security/cacerts/a2df7ad7.0
        4793  /system/etc/security/cacerts/67495436.0
        4778  /system/etc/security/cacerts/3e7271e8.0
        4767  /system/etc/security/cacerts/00673b5b.0
        4765  /system/etc/security/cacerts/1676090a.0
        4764  /system/etc/security/cacerts/ed524cf5.0
        4747  /system/etc/security/cacerts/23f4c490.0
        4731  /system/etc/security/cacerts/5021a0a2.0
        4729  /system/etc/security/cacerts/2fa87019.0
        4718  /system/etc/security/cacerts/bdacca6f.0
        4716  /system/etc/security/cacerts/111e6273.0
        4712  /system/etc/security/cacerts/219d9499.0
        4710  /system/etc/security/cacerts/cf701eeb.0
        4706  /system/etc/security/cacerts/3a3b02ce.0
        4703  /system/framework/input.jar
        4702  /system/etc/security/cacerts/f58a60fe.0
        4700  /system/etc/security/cacerts/c7e2a638.0
        4692  /system/etc/security/cacerts/fde84897.0
        4683  /system/etc/security/cacerts/635ccfd5.0
        4679  /system/etc/security/cacerts/81b9768f.0
        4671  /system/etc/security/cacerts/5a5372fc.0
        4667  /system/etc/security/cacerts/343eb6cb.0
        4648  /system/etc/security/cacerts/69105f4f.0
        4634  /system/etc/security/cacerts/84cba82f.0
        4628  /system/etc/security/cacerts/399e7759.0
        4620  /system/framework/svc.jar
        4614  /system/etc/security/cacerts/10531352.0
        4603  /system/etc/security/cacerts/fac084d7.0
        4602  /system/framework/webview/paks/ja.pak
        4591  /system/etc/security/cacerts/cdaebb72.0
        4590  /system/framework/com.android.media.remotedisplay.jar
        4585  /system/etc/firmware/ar3k/1020200/PS_ASIC.pst
        4585  /system/etc/firmware/ar3k/1020200/PS_ASIC_class_2.pst
        4578  /system/etc/security/cacerts/17b51fe6.0
        4576  /system/etc/security/cacerts/bda4cc84.0
        4571  /system/etc/security/cacerts/85cde254.0
        4566  /system/etc/security/cacerts/b872f2b4.0
        4540  /system/etc/security/cacerts/0d188d89.0
        4535  /system/etc/security/cacerts/895cad1a.0
        4534  /system/etc/security/cacerts/6adf0799.0
        4533  /system/etc/security/cacerts/c3a6a9ad.0
        4527  /system/etc/security/cacerts/1e1eab7c.0
        4524  /system/etc/security/cacerts/c527e4ab.0
        4524  /system/etc/security/cacerts/7d453d8f.0
        4515  /system/etc/security/cacerts/bc3f2570.0
        4511  /system/etc/security/cacerts/95aff9e3.0
        4484  /system/etc/security/cacerts/6fcc125d.0
        4452  /system/etc/security/cacerts/8470719d.0
        4445  /system/etc/security/cacerts/4e18c148.0
        4433  /system/etc/security/cacerts/57692373.0
        4405  /system/etc/security/cacerts/9772ca32.0
        4386  /system/etc/security/cacerts/c51c224c.0
        4369  /system/etc/security/cacerts/9dbefe7b.0
        4368  /system/etc/security/cacerts/b0f3e76e.0
        4361  /system/etc/security/cacerts/3ad48a91.0
        4359  /system/etc/security/cacerts/d59297b8.0
        4355  /system/etc/security/cacerts/b7db1890.0
        4340  /system/vendor/etc/audio_effects.conf
        4333  /system/etc/security/cacerts/ab5346f4.0
        4332  /system/etc/security/cacerts/1e8e7201.0
        4312  /system/etc/security/cacerts/7999be0d.0
        4300  /system/etc/security/cacerts/12d55845.0
        4291  /system/framework/webview/paks/vi.pak
        4285  /system/etc/security/cacerts/e48193cf.0
        4284  /system/etc/security/cacerts/a3896b44.0
        4281  /system/etc/security/cacerts/86212b19.0
        4270  /system/etc/security/cacerts/72f369af.0
        4270  /system/etc/security/cacerts/eb375c3e.0
        4264  /system/framework/webview/paks/he.pak
        4263  /system/etc/security/cacerts/48478734.0
        4262  /system/etc/security/cacerts/882de061.0
        4247  /system/framework/requestsync.jar
        4205  /system/framework/media_cmd.jar
        4150  /system/etc/security/cacerts/9685a493.0
        4146  /system/framework/webview/paks/fr.pak
        4123  /system/etc/security/cacerts/a7605362.0
        4115  /system/framework/settings.jar
        4071  /system/framework/webview/paks/es.pak
        4067  /system/framework/webview/paks/ro.pak
        4048  /system/framework/webview/paks/hu.pak
        4018  /system/framework/webview/paks/fil.pak
        3972  /system/framework/webview/paks/lv.pak
        3957  /system/etc/security/cacerts/6e8bf996.0
        3956  /system/framework/webview/paks/es-419.pak
        3891  /system/framework/webview/paks/lt.pak
        3883  /system/framework/webview/paks/ca.pak
        3846  /system/etc/init.atheros.sh
        3814  /system/bin/uiautomator
        3802  /system/framework/webview/paks/ko.pak
        3796  /system/framework/webview/paks/de.pak
        3734  /system/framework/webview/paks/it.pak
        3730  /system/framework/webview/paks/sk.pak
        3720  /system/framework/webview/paks/hr.pak
        3715  /system/framework/webview/paks/sw.pak
        3700  /system/framework/webview/paks/pl.pak
        3693  /system/framework/webview/paks/pt-PT.pak
        3676  /system/app/Provision.apk
        3670  /system/framework/webview/paks/cs.pak
        3647  /system/etc/security/cacerts/594f1775.0
        3637  /system/etc/security/cacerts/1dbdda5b.0
        3617  /system/framework/webview/paks/tr.pak
        3603  /system/framework/webview/paks/pt-BR.pak
        3578  /system/framework/webview/paks/sl.pak
        3576  /system/framework/webview/paks/nl.pak
        3564  /system/framework/webview/paks/fi.pak
        3522  /system/framework/webview/paks/ms.pak
        3491  /system/etc/security/cacerts/5e4e69e7.0
        3459  /system/framework/webview/paks/et.pak
        3455  /system/etc/init.bt.sh
        3418  /system/etc/system_fonts.xml
        3411  /system/framework/wm.jar
        3378  /system/framework/webview/paks/id.pak
        3373  /system/framework/ime.jar
        3316  /system/framework/webview/paks/nb.pak
        3284  /system/framework/webview/paks/da.pak
        3275  /system/framework/webview/paks/sv.pak
        3275  /system/etc/security/cacerts/c33a80d4.0
        3273  /system/framework/webview/paks/zh-TW.pak
        3237  /system/framework/webview/paks/en-US.pak
        3232  /system/framework/webview/paks/zh-CN.pak
        3227  /system/framework/webview/paks/en-GB.pak
        3226  /system/etc/security/cacerts/ddc328ff.0
        3140  /system/etc/security/cacerts/74c26bd0.0
        3116  /system/etc/security/cacerts/b3fb433b.0
        3110  /system/etc/security/cacerts/e7b8d656.0
        3098  /system/etc/security/cacerts/72fa7371.0
        3058  /system/usr/keylayout/Vendor_1997_Product_0409.kl
        3058  /system/usr/keylayout/Vendor_1997_Product_2433.kl
        3003  /system/etc/security/cacerts/f4996e82.0
        3003  /system/etc/security/cacerts/bcdd5959.0
        3003  /system/etc/security/cacerts/7d3cd826.0
        2961  /system/etc/security/cacerts/27af790d.0
        2878  /system/etc/security/cacerts/a7d2cf64.0
        2863  /system/etc/security/cacerts/89c02a45.0
        2833  /system/framework/com.android.future.usb.accessory.jar
        2821  /system/etc/bluetooth/bt_did.conf
        2796  /system/etc/init.can.sh
        2793  /system/usr/keylayout/Vendor_046d_Product_c532.kl
        2748  /system/fonts/AndroidEmoji.ttf
        2726  /system/framework/bu.jar
        2718  /system/usr/keylayout/Vendor_04d9_Product_1503.kl
        2680  /system/etc/security/cacerts/4d654d1d.0
        2657  /system/etc/security/cacerts/7651b327.0
        2577  /system/usr/keylayout/qwerty.kl
        2552  /system/etc/security/cacerts/ccc52f49.0
        2399  /system/usr/keylayout/Vendor_05ac_Product_0239.kl
        2324  /system/etc/ppp/init.gprs-pppd
        2066  /system/etc/init.gpios.sh
        2048  /system/etc/firmware/ath6k/AR6003/hw2.1.1/Digi_6203-6233-US.bin
        2048  /system/etc/firmware/ath6k/AR6003/hw2.1.1/Digi_6203_2_ANT_WORLD.bin
        2048  /system/etc/firmware/ath6k/AR6003/hw2.1.1/Digi_6203-6233-World.bin
        2048  /system/etc/firmware/ath6k/AR6003/hw2.1.1/bdata.bin
        2048  /system/etc/firmware/ath6k/AR6003/hw2.1.1/Digi_6203_2_ANT_US.bin
        1994  /system/usr/keylayout/Vendor_22b8_Product_093d.kl
        1994  /system/etc/audio_policy.conf
        1978  /system/etc/permissions/required_hardware.xml
        1677  /system/etc/firmware/ar3k/30101/PS_ASIC.pst
        1672  /system/build.prop
        1566  /system/etc/bluetooth/auto_pair_devlist.conf
        1454  /system/usr/keylayout/Vendor_054c_Product_0268.kl
        1431  /system/usr/keylayout/Dell_Dell_USB_Keyboard.kl
        1413  /system/etc/mkshrc
        1392  /system/usr/keylayout/Vendor_046d_Product_c299.kl
        1384  /system/etc/ppp/quectel-pppd.sh
        1332  /system/lib/crtbegin_so.o
        1325  /system/usr/keylayout/Vendor_046d_Product_c294.kl
        1316  /system/etc/security/otacerts.zip
        1308  /system/etc/contentpipe_register
        1277  /system/usr/keylayout/Vendor_045e_Product_028e.kl
        1144  /system/etc/permissions/android.hardware.touchscreen.multitouch.jazzhand.xml
        1073  /system/etc/dhcpcd/dhcpcd-hooks/20-dns.conf
        1053  /system/etc/ppp/peers/quectel-ppp
        1050  /system/etc/permissions/android.software.live_wallpaper.xml
        1027  /system/usr/keylayout/Vendor_046d_Product_c216.kl
        1018  /system/etc/gpio_list.txt
        1017  /system/usr/keylayout/Vendor_1d79_Product_0009.kl
        1009  /system/etc/dhcpcd/dhcpcd-run-hooks
         988  /system/usr/keylayout/Vendor_1689_Product_fd00.kl
         984  /system/fonts/NotoSansSymbols-Regular.ttf
         983  /system/etc/dhcpcd/dhcpcd-hooks/95-configured
         975  /system/etc/permissions/android.hardware.usb.accessory.xml
         955  /system/usr/keylayout/Vendor_2378_Product_100a.kl
         951  /system/usr/keylayout/Vendor_1bad_Product_f036.kl
         950  /system/usr/keylayout/Vendor_046d_Product_c21f.kl
         947  /system/etc/bluetooth/bt_stack.conf
         943  /system/usr/keylayout/Vendor_046d_Product_c219.kl
         942  /system/usr/keylayout/Vendor_1689_Product_fd01.kl
         942  /system/usr/keylayout/Vendor_1689_Product_fe00.kl
         942  /system/etc/permissions/android.hardware.location.gps.xml
         940  /system/usr/keylayout/Vendor_1bad_Product_f023.kl
         935  /system/usr/keylayout/Vendor_1bad_Product_f016.kl
         935  /system/usr/keylayout/Vendor_1bad_Product_f027.kl
         927  /system/etc/permissions/android.hardware.faketouch.xml
         918  /system/etc/init.pwm.sh
         894  /system/usr/keylayout/AVRCP.kl
         883  /system/etc/permissions/android.hardware.telephony.cdma.xml
         881  /system/etc/permissions/android.hardware.telephony.gsm.xml
         880  /system/etc/permissions/android.hardware.consumerir.xml
         880  /system/etc/permissions/android.software.sip.voip.xml
         877  /system/etc/permissions/android.hardware.camera.front.xml
         870  /system/usr/idc/qwerty2.idc
         869  /system/usr/idc/qwerty.idc
         868  /system/etc/permissions/android.hardware.usb.host.xml
         850  /system/usr/keylayout/Vendor_1038_Product_1412.kl
         843  /system/etc/permissions/android.hardware.wifi.direct.xml
         839  /system/usr/idc/Dell_Dell_USB_Keyboard.idc
         830  /system/etc/permissions/android.hardware.bluetooth_le.xml
         829  /system/etc/permissions/android.hardware.wifi.xml
         828  /system/etc/permissions/com.android.location.provider.xml
         828  /system/etc/permissions/com.android.media.remotedisplay.xml
         824  /system/etc/permissions/android.hardware.sensor.accelerometer.xml
         816  /system/etc/permissions/android.hardware.sensor.light.xml
         805  /system/usr/keylayout/Vendor_12bd_Product_d015.kl
         788  /system/usr/keylayout/Vendor_0583_Product_2060.kl
         737  /system/usr/keylayout/Vendor_0079_Product_0011.kl
         650  /system/etc/clatd.conf
         650  /system/etc/init.usbperm.sh
         617  /system/lib/crtend_so.o
         585  /system/etc/core_register
         381  /system/etc/gps_cfg.inf
         320  /system/etc/ppp/peers/quectel-chat-connect
         279  /system/etc/ppp/ip-up
         268  /system/etc/dhcpcd/dhcpcd.conf
         217  /system/bin/monkey
         210  /system/bin/am
         210  /system/bin/media
         207  /system/bin/content
         201  /system/bin/input
         199  /system/bin/bmgr
         194  /system/bin/ime
         194  /system/etc/gps.conf
         192  /system/bin/svc
         191  /system/bin/pm
         190  /system/bin/wm
         188  /system/bin/requestsync
         178  /system/bin/settings
         159  /system/etc/wifi/wpa_supplicant.conf
         156  /system/bin/bu
         154  /system/etc/ppp/peers/quectel-chat-disconnect
         126  /system/usr/idc/eGalax_Touch_Screen.idc
         126  /system/usr/idc/HannStar_P1003_Touchscreen.idc
         126  /system/usr/idc/Novatek_NT11003_Touch_Screen.idc
         126  /system/usr/idc/fusion-touch.idc
         105  /system/etc/display_mode_fb2.conf
         105  /system/etc/display_mode_fb4.conf
          77  /system/etc/display_mode_fb0.conf
          64  /system/etc/wifi/p2p_supplicant_advance_overlay.conf
          37  /system/etc/ppp/quectel-ppp-kill
          33  /system/etc/ota.conf
          25  /system/etc/hosts
          24  /system/lib/egl/egl.cfg
          23  /system/etc/wifi/p2p_supplicant_overlay.conf
          23  /system/etc/wifi/wpa_supplicant_overlay.conf
          18  /system/fonts/DroidSans.ttf
          15  /system/fonts/DroidSans-Bold.ttf
          14  /system/etc/firmware/ar3k/1020200/ar3kbdaddr.pst
          13  /system/etc/firmware/ar3k/30101/ar3kbdaddr.pst
          12  /system/lib/libGLESv3.so
          12  /system/etc/firmware/ath6k/AR6003/hw2.1.1/nullTestFlow.bin
           7  /system/bin/route
           7  /system/bin/lsmod
           7  /system/bin/rmmod
           7  /system/bin/r
           7  /system/bin/stop
           7  /system/bin/dmesg
           7  /system/bin/setprop
           7  /system/bin/hd
           7  /system/bin/restorecon
           7  /system/bin/notify
           7  /system/bin/getprop
           7  /system/bin/grep
           7  /system/bin/sendevent
           7  /system/bin/wipe
           7  /system/bin/ls
           7  /system/bin/ionice
           7  /system/bin/setconsole
           7  /system/bin/ioctl
           7  /system/bin/setenforce
           7  /system/bin/dd
           7  /system/bin/swapoff
           7  /system/bin/umount
           7  /system/bin/touch
           7  /system/bin/iftop
           7  /system/bin/log
           7  /system/bin/top
           7  /system/bin/chmod
           7  /system/bin/setsebool
           7  /system/bin/readlink
           7  /system/bin/du
           7  /system/bin/df
           7  /system/bin/sync
           7  /system/bin/getsebool
           7  /system/bin/insmod
           7  /system/bin/mkdir
           7  /system/bin/lsof
           7  /system/bin/ps
           7  /system/bin/lsusb
           7  /system/bin/load_policy
           7  /system/bin/date
           7  /system/bin/printenv
           7  /system/bin/chcon
           7  /system/bin/renice
           7  /system/bin/newfs_msdos
           7  /system/bin/ln
           7  /system/bin/getevent
           7  /system/bin/id
           7  /system/bin/vmstat
           7  /system/bin/mv
           7  /system/bin/uptime
           7  /system/bin/mkswap
           7  /system/bin/getenforce
           7  /system/bin/nandread
           7  /system/bin/clear
           7  /system/bin/swapon
           7  /system/bin/kill
           7  /system/bin/mount
           7  /system/bin/rmdir
           7  /system/bin/start
           7  /system/bin/netstat
           7  /system/bin/schedtop
           7  /system/bin/chown
           7  /system/bin/smd
           7  /system/bin/sleep
           7  /system/bin/cat
           7  /system/bin/runcon
           7  /system/bin/watchprops
           7  /system/bin/rm
           7  /system/bin/cmp
           7  /system/bin/ifconfig
           7  /system/bin/md5
           7  /system/bin/cp
           6  /system/etc/firmware/ath6k/AR6003/hw2.1.1/softmac
           4  /system/bin/sh
